Enric Escorsa O'Callaghan - Mapes de paraules com a vectors
…
#N'extrec els termes
terms <- Terms(dtm)
head(terms)
## [1] "(lapw)" "10%"    "106.2"  "38.4"   "40.7"   "46.1"

Els termes que s’extreuen són del tipus:

Ara posem la matriu en format net -és a dir, una taula amb columnes: document, terme i frequència d’aparició- mitjançant la funció tidy.

net <- tidy(dtm)
View(net) #veig la taula resultant
#ordeno els termes més frequents de net
net %>%
  count(term, sort = TRUE)
## # A tibble: 33,440 x 2
##    term        n
##    <chr>   <int>
##  1 the      2303
##  2 and      2242
##  3 lithium  2001
##  4 for      1838
##  5 with     1801
##  6 that     1547
##  7 are      1462
##  8 this     1300
##  9 from     1101
## 10 which     947
## # ... with 33,430 more rows
 
#Hem vist que hi havia moltes paraules no rellevants (stopwords); elimino els que no vull creant-me primer una llista de stopwords i filtrant després amb aquesta (amb anti_join)
elsmeusstopwords <- tibble(term = c(as.character(1:10),
                                    "the", "and", "for", "this", "between", "than", "through", "but", "have", "been", "these", "that", "are", "from", "with", "their", "such", "also", "then", "was", "were", "which", "has", "its", "this", "can", "paper", "study", "presents", "while"))
netissim <- net %>%
  anti_join(elsmeusstopwords)
View(netissim)
 
#ara podem ordenar termes per freqüència
netissim %>%
  count(term, sort = TRUE)
## # A tibble: 33,411 x 2
##    term        n
##    <chr>   <int>
##  1 lithium  2001
##  2 using     770
##  3 our       692
##  4 high      577
##  5 results   561
##  6 stars     530
##  7 show      519
##  8 present   516
##  9 two       489
## 10 not       476
## # ... with 33,401 more rows
…
Si volguéssim podríem examinar els termes que més coocórren amb un terme en concret (p.ex. niobate)

parells %>%
  filter(item1 == "quantum")
## # A tibble: 6,279 x 3
##    item1   item2           n
##    <chr>   <chr>       <dbl>
##  1 quantum niobate       114
##  2 quantum optical        73
##  3 quantum demonstrate    67
##  4 quantum photon         64
##  5 quantum based          61
##  6 quantum two            57
##  7 quantum results        55
##  8 quantum single         54
##  9 quantum frequency      53
## 10 quantum integrated     51
## # ... with 6,269 more rows
…
#primer hem de transformar el nostre dataset netissim en una matriu dtm (inversament a com havíem fet abans). això ho podem fer amb cast_dtm
netissim_dtm <- netissim %>%
  cast_dtm(document, term, count)
 
#si volgués guardar-ho en un csv
#write.csv(netissim_dtm,file=”netissim_dtm.csv”
 
#ara apliquem LDA
lda_netissim <- LDA(netissim_dtm, k = 9, control = list(alpha = 0.1)) #decidim fer 9 topics o clusters (k=6)
 
#per extraure les probabilitats que una paraula pertanyi a un topic (això s'anomena beta)
topics_netissim <- tidy(lda_netissim, matrix = "beta")
topics_netissim
## # A tibble: 300,699 x 3
##    topic term       beta
##    <int> <chr>     <dbl>
##  1     1 (lapw) 3.94e- 5
##  2     2 (lapw) 8.83e-89
##  3     3 (lapw) 1.56e-89
##  4     4 (lapw) 2.45e-89
##  5     5 (lapw) 2.19e-89
##  6     6 (lapw) 3.69e-25
##  7     7 (lapw) 8.12e-89
##  8     8 (lapw) 2.14e-89
##  9     9 (lapw) 4.92e-42
## 10     1 10%    8.20e- 5
## # ... with 300,689 more rows

Podem visualitzar els top termes de cada cluster amb barres de freqüència:

top_terms_per_clusters <- topics_netissim  %>%
  group_by(topic) %>%
  top_n(10, beta) %>%
  ungroup() %>%
  arrange(topic, -beta)
top_terms_per_clusters
## # A tibble: 90 x 3
##    topic term         beta
##    <int> <chr>       <dbl>
##  1     1 lithium   0.0152 
##  2     1 stars     0.0131 
##  3     1 stellar   0.0112 
##  4     1 solar     0.00873
##  5     1 rotation  0.00852
##  6     1 models    0.00780
##  7     1 mass      0.00682
##  8     1 depletion 0.00646
##  9     1 age       0.00542
## 10     1 surface   0.00540
## # ... with 80 more rows
…
