Enric Escorsa O'Callaghan - Text mining poetry
…
Provem d’analitzar-ne el contingut. Per fer-ho em baso en l’enfocament tidy textmining segons proposat per la científica de dades @JuliaSilge. Creem un corpus amb el text i el transformem en una matriu document-terme (dtm). N’extraiem els termes.

## [1] "abracen"  "abrazo"   "abuelas"  "ahuyente" "alguien"  "alma"

Ara posem la matriu en format net -és a dir, una taula amb columnes: terme i frequència d’aparició- mitjançant la funció tidy, elimino stopwords (paraules irrellevants tals com preposicions i alguna altra- i ordeno per freqüència.

net <- tidy(dtm)

#ordeno els termes més frequents de net
net %>%
  count(term, sort = TRUE)

## # A tibble: 10,680 x 2
##    term         n
##    <chr>    <int>
##  1 "que"      155
##  2 "con"      147
##  3 "los"      145
##  4 "las"      136
##  5 "por"      136
##  6 "del"      135
##  7 "para"     133
##  8 "una"      131
##  9 "m\xe1s"   122
## 10 "como"     121
## # ... with 10,670 more rows

net$term <- iconv(net$term, 'LATIN1', 'LATIN1') 

#creo una llista de les paraules que no vull (stopwords)
elsmeusstopwords <- tibble(term = c(as.character(1:10), "la", "el", "que","nos", "los", "las", "por", "un", "una", "de", "del", "como", "para", "sus", "tus", "pero", "porque", "con", "sin", "en", "mis", "hasta", "más", "desde", "o", "su", "te", "le", "este", "esta", "tu", "al", "lo", "me", "se", "a", "y", "[música]", "[aplausos]"))

#i uso aquesta llista per filtrar-les (mitjançant "anti_join") de les que tenia per a que em quedi un corpus net
netissim <- net %>% anti_join(elsmeusstopwords)
netissim$term <- iconv(netissim$term, 'LATIN1', 'LATIN1') 

#ara podem ordenar termes per freqüència
netissim %>%
  count(term, sort = TRUE)

## # A tibble: 10,659 x 2
##    term       n
##    <chr>  <int>
##  1 todo      85
##  2 ser       83
##  3 cuando    80
##  4 vida      79
##  5 ahora     74
##  6 así       70
##  7 está      68
##  8 donde     67
##  9 cada      66
## 10 solo      62
## # ... with 10,649 more rows
…
Si volguéssim podríem examinar els termes que més coocórren amb un terme en concret (p.ex. amor)

parells %>%
  filter(item1 == "amor")

## # A tibble: 4,475 x 3
##    item1 item2      n
##    <chr> <chr>  <dbl>
##  1 amor  vida      29
##  2 amor  ser       27
##  3 amor  todo      26
##  4 amor  cuando    25
##  5 amor  ahora     24
##  6 amor  cada      23
##  7 amor  donde     22
##  8 amor  son       21
##  9 amor  día       20
## 10 amor  mundo     20
## # ... with 4,465 more rows
…
Sembla que als poetes en general, els agrada dir “no”

Poetes i paraules més repetides:

repetitiu <- paraulespoetes %>%
  group_by(poeta, word) %>%
  summarize(n=n()) %>%
  arrange(desc(n)) 
repetitiu %>% select(word, n, poeta)

## # A tibble: 22,188 x 3
## # Groups:   poeta [47]
##    word      n poeta
##    <chr> <int> <fct>
##  1 no      120 SS   
##  2 no      113 DO   
##  3 gente    79 SS   
##  4 no       67 DA   
##  5 no       67 PO   
##  6 buena    66 SS   
##  7 mi       57 JM   
##  8 es       56 JM   
##  9 es       54 CS   
## 10 no       54 DM   
## # ... with 22,178 more rows
…
Quins són els poetes amb més riquesa de vocabulari?

uniques <- paraulespoetes %>%
  group_by(poeta) %>%
  summarize(n = length(unique(word))) %>%
  arrange(desc(n))
uniques

## # A tibble: 47 x 2
##    poeta     n
##    <fct> <int>
##  1 DO     2111
##  2 DA     1880
##  3 SS     1609
##  4 PO     1147
##  5 MB     1052
##  6 AA      986
##  7 CS      857
##  8 O       825
##  9 AG      804
## 10 IG      708
## # ... with 37 more rows

…però no tots els poetes tenen el mateix nombre de poemes. Cal normalitzar-ho en cada cas. Quants poemes tenia cada poeta?

poemespoeta <- lesmevesdades %>%
 count(poeta, sort = TRUE)
poemespoeta

## # A tibble: 63 x 2
##    poeta     n
##    <fct> <int>
##  1 DO       35
##  2 SS       32
##  3 EB       19
##  4 DA       15
##  5 CS       13
##  6 PO       13
##  7 CM       11
##  8 IG       11
##  9 MB       11
## 10 AA       10
## # ... with 53 more rows

Doncs divideixo el nombre de paraules pel nombre de poemes de cada poeta

#faig un join de la taula de paraules per poeta i la taula de nombre de poemes.
ricvocab <-  full_join (uniques, poemespoeta, by="poeta")

#creo la columna absparaules resultant amb mutate
ricvocab <- ricvocab %>%  mutate (riquesavocab = n.x/n.y) %>% arrange(desc(riquesavocab))
ricvocab

## # A tibble: 63 x 4
##    poeta   n.x   n.y riquesavocab
##    <fct> <int> <int>        <dbl>
##  1 AR      225     1         225 
##  2 NH      635     3         212.
##  3 DYS     211     1         211 
##  4 XC      192     1         192 
##  5 ES      178     1         178 
##  6 RB      172     1         172 
##  7 YB      166     1         166 
##  8 GC      154     1         154 
##  9 GA      152     1         152 
## 10 N       442     3         147.
## # ... with 53 more rows
…
#veure anàlisi de l'evolució dels sentiments en el temps de Chris Norval: http://cnorval.github.io/2015/12/24/Sentiment_Analysis/ com fer aquest tipus d'anàlisi de l'evolució dels sentiments en el temps.

lesmevesdades$texto <- as.vector(lesmevesdades$texto)
lesmevesdades$sentiment <- get_sentiment(lesmevesdades$texto) %>% as.numeric()

lesmevesdades %>%
  group_by(poeta) %>%
  summarise(min = min(sentiment), 
            max = max(sentiment), 
            mitjana = round(mean(sentiment), 2), 
            mediana = median(sentiment), 
            poemes = n())

## # A tibble: 63 x 6
##    poeta   min    max mitjana mediana poemes
##    <fct> <dbl>  <dbl>   <dbl>   <dbl>  <int>
##  1 "AA"  -1.75  1.1    -0.11     0        10
##  2 "AB"  -0.25  0.5     0.06     0         4
##  3 "AG"  -2.05 -0.75   -1.22    -1         6
##  4 "AL"  -1.9   0.35   -0.52     0         3
##  5 "ALE" -2.25  0      -1.12    -1.12      2
##  6 "ALU" -1     0      -0.25     0         4
##  7 "AMR" -2.75  0.75   -0.570    0         5
##  8 "AO"  -1.5   0.100  -0.28     0         5
##  9 "AR"  -1.8  -1.8    -1.8     -1.8       1
## 10 "AS " -1.25  0      -0.83    -1.25      3
## # ... with 53 more rows
…
