Llegint l’obra de Henry David Thoreau des del projecte Gutemberg amb R
…
Aleshores podem descarregar-nos el llibre que ens interessa per l’identificador

walden <- gutenberg_download(205)

## Determining mirror for Project Gutenberg from http://www.gutenberg.org/robot/harvest

## Using mirror http://aleph.gutenberg.org

walden

## # A tibble: 10,099 x 2
##    gutenberg_id text                               
##           <int> <chr>                              
##  1          205 "WALDEN,"                          
##  2          205 ""                                 
##  3          205 "and"                              
##  4          205 ""                                 
##  5          205 "ON THE DUTY OF CIVIL DISOBEDIENCE"
##  6          205 ""                                 
##  7          205 "By Henry David Thoreau"           
##  8          205 ""                                 
##  9          205 ""                                 
## 10          205 ""                                 
## # ... with 10,089 more rows
…
## -- Conflicts ------------------------------------------------------ tidyverse_conflicts() --
## x dplyr::filter() masks stats::filter()
## x dplyr::lag()    masks stats::lag()

library(tidytext)

## Warning: package 'tidytext' was built under R version 3.6.1

words <- walden %>%
  unnest_tokens(word, text)

words

## # A tibble: 116,879 x 2
##    gutenberg_id word        
##           <int> <chr>       
##  1          205 walden      
##  2          205 and         
##  3          205 on          
##  4          205 the         
##  5          205 duty        
##  6          205 of          
##  7          205 civil       
##  8          205 disobedience
##  9          205 by          
## 10          205 henry       
## # ... with 116,869 more rows

i en fem un recompte

recompte_paraules <- words %>%
  anti_join(stop_words, by = "word") %>%
  count(gutenberg_id, word, sort = TRUE)

recompte_paraules

## # A tibble: 10,812 x 3
##    gutenberg_id word       n
##           <int> <chr>  <int>
##  1          205 life     203
##  2          205 pond     202
##  3          205 house    200
##  4          205 day      194
##  5          205 time     176
##  6          205 water    175
##  7          205 woods    151
##  8          205 ice      123
##  9          205 winter   106
## 10          205 heard    103
## # ... with 10,802 more rows
…
